[gd_scene load_steps=3 format=3 uid="uid://cuc4myo2yfavf"]

[ext_resource type="PackedScene" uid="uid://dknndxy4ay4eb" path="res://inventory/item_slot_ui.tscn" id="1_5nuw4"]
[ext_resource type="Script" path="res://ui/hand.gd" id="2_7pwa2"]

[node name="Hand" type="PanelContainer"]
custom_minimum_size = Vector2(64, 64)
size_flags_stretch_ratio = 1.55
script = ExtResource("2_7pwa2")

[node name="ItemSlotUI" parent="." instance=ExtResource("1_5nuw4")]
layout_mode = 2
