[gd_resource type="Resource" script_class="ItemType" load_steps=6 format=3 uid="uid://bxm0oj6py6lid"]

[ext_resource type="Script" path="res://inventory/buildable.gd" id="1_7871s"]
[ext_resource type="Texture2D" uid="uid://coyqwq6jxxnhv" path="res://items/tool/anglegrinder/tool_anglegrinder_icon.png" id="1_oswit"]
[ext_resource type="Script" path="res://inventory/item_type.gd" id="1_tbayq"]
[ext_resource type="PackedScene" uid="uid://dphcclht0bgfe" path="res://items/tool/anglegrinder/tool_anglegrinder_item_physics.tscn" id="2_tkl08"]
[ext_resource type="PackedScene" uid="uid://ckkr47gpmbd57" path="res://items/tool/anglegrinder/tool_anglegrinder_item_view.tscn" id="4_28wqi"]

[resource]
script = ExtResource("1_tbayq")
name = "Angle Grinder"
max_stack = 1
icon_texture = ExtResource("1_oswit")
view_scene = ExtResource("4_28wqi")
physics_scene = ExtResource("2_tkl08")
buildables = Array[ExtResource("1_7871s")]([])
tags = Array[String](["angle_grinder", "tool"])
