[gd_scene load_steps=2 format=3 uid="uid://drc5pyoqj72mb"]

[ext_resource type="PackedScene" uid="uid://7uij0d2hy7d6" path="res://grid/small/pipes/small_pipes_corner.glb" id="1_isrlh"]

[node name="SmallPipeCornerView" type="Node3D"]

[node name="Pipe Corner" parent="." instance=ExtResource("1_isrlh")]
