[gd_scene load_steps=2 format=3 uid="uid://btji3nemo40kw"]

[ext_resource type="PackedScene" uid="uid://cwpdtvirnr7ya" path="res://grid/small/pipes/small_pipes_tee_corner.glb" id="1_7pwup"]

[node name="SmallPipeTeeCornerView" type="Node3D"]

[node name="Pipe Tee Corner" parent="." instance=ExtResource("1_7pwup")]
